{
    "name": "Band",
    "fields": [
        {
            "fieldName": "name",
            "fieldType": "String",
            "fieldValidateRules": [
                "required"
            ]
        },
        {
            "fieldName": "video",
            "fieldType": "String"
        },
        {
            "fieldName": "description",
            "fieldType": "String",
            "fieldValidateRules": [
                "maxlength",
                "required"
            ],
            "fieldValidateRulesMaxlength": 1024
        },
        {
            "fieldName": "star",
            "fieldType": "Double",
            "fieldValidateRules": [
                "min",
                "max"
            ],
            "fieldValidateRulesMin": 0,
            "fieldValidateRulesMax": 5
        }
    ],
    "relationships": [
        {
            "relationshipType": "one-to-many",
            "otherEntityName": "bandMember",
            "otherEntityRelationshipName": "bandMembers",
            "relationshipName": "members"
        },
        {
            "relationshipType": "one-to-many",
            "otherEntityName": "quotation",
            "otherEntityRelationshipName": "bandQuotations",
            "relationshipName": "quotations"
        },
        {
            "relationshipType": "many-to-many",
            "otherEntityName": "category",
            "otherEntityRelationshipName": "bandCategory",
            "relationshipName": "categories",
            "otherEntityField": "name",
            "ownerSide": true
        },
        {
            "relationshipType": "many-to-many",
            "otherEntityName": "images",
            "otherEntityRelationshipName": "bandImages",
            "relationshipName": "images",
            "otherEntityField": "id",
            "ownerSide": true
        }
    ],
    "changelogDate": "20190511050601",
    "entityTableName": "band",
    "dto": "mapstruct",
    "pagination": "pagination",
    "service": "serviceImpl",
    "jpaMetamodelFiltering": true,
    "fluentMethods": true,
    "clientRootFolder": "",
    "applications": "*"
}