id;name;image
1;Vallenato;https://www.elespectador.com/sites/default/files/5b2378bc8d389154e44f9810e805411a.jpg
2;Mariachi;https://d2yoo3qu6vrk5d.cloudfront.net/images/20170419082335/la-hija-del-mariachi-482x320.jpg?itok=1492613936
3;Rock;https://images.vexels.com/media/users/3/145816/isolated/preview/7616b64374d1ecc318e9d638807c4d61-logotipo-de-la-muestra-de-la-m-sica-rock-by-vexels.png
4;Pop;https://pixel.nymag.com/imgs/daily/vulture/2017/12/best-of-2017/11-yic-pop-essay.w1200.h630.jpg
5;Trio;http://cdn2.classical-music.com/sites/default/files/imagecache/623px_wide/Trio_cmyk.jpg
6;Solista;https://promocionmusical.es/wp-content/uploads/2018/07/la-musica-mejora-la-vida-810x513.jpg
7;Tuna;https://promocionmusical.es/wp-content/uploads/2018/07/la-musica-mejora-la-vida-810x513.jpg
8;Duo;https://promocionmusical.es/wp-content/uploads/2018/07/la-musica-mejora-la-vida-810x513.jpg
9;Reggeton;https://djsantana.net/wp-content/uploads/2018/08/REGGAETON.jpg
10;Salsa;http://musicandote.com/wp-content/uploads/2014/04/salsa.jpg
